{
    "message": {
        "results": [
            {
                "id": 3,
                "title": "Quisque maximus felis vel felis mollis varius",
                "subtitle": " Mauris egestas gravida dolor sed interdum",
                "timestamp": 1624184299409
            },
            {
                "id": 4,
                "title": "Sed fermentum massa nisl, ut pretium sapien egestas eget",
                "subtitle": " Cras rutrum non massa ac hendrerit",
                "timestamp": 1624097899409
            },
            {
                "id": 5
            }
        ],
        "size": 3,
        "parameters": {
            "limit": "3",
            "offset": "3"
        }
    }
}
